<?xml version="1.0" standalone="no"?>
<!DOCTYPE svg PUBLIC "-//W3C//DTD SVG 20010904//EN"
 "http://www.w3.org/TR/2001/REC-SVG-20010904/DTD/svg10.dtd">
<svg version="1.0" xmlns="http://www.w3.org/2000/svg"
 width="300.000000pt" height="300.000000pt" viewBox="0 0 300.000000 300.000000"
 preserveAspectRatio="xMidYMid meet">
<metadata>
Created by potrace 1.11, written by Peter Selinger 2001-2013
</metadata>
<g transform="translate(0.000000,300.000000) scale(0.100000,-0.100000)"
fill="#000000" stroke="none">
<path d="M1320 2944 c-627 -80 -1133 -542 -1261 -1154 -25 -117 -35 -334 -21
-455 77 -668 605 -1199 1275 -1280 35 -5 57 -4 57 2 0 6 -59 73 -131 149 -140
148 -179 209 -178 279 1 130 96 226 227 226 68 1 114 -16 164 -60 l35 -31 19
21 c27 30 93 66 135 73 52 9 132 -11 178 -45 75 -54 108 -162 77 -255 -13 -39
-44 -79 -156 -198 -77 -82 -140 -153 -140 -159 0 -6 22 -7 58 -2 596 72 1086
502 1238 1084 65 252 55 566 -26 812 -35 106 -146 319 -210 404 -219 292 -516
483 -878 566 -85 20 -375 34 -462 23z m390 -138 c335 -65 623 -230 819 -470
210 -256 311 -541 311 -872 0 -304 -101 -584 -298 -827 -58 -71 -81 -84 -124
-68 -37 14 -55 54 -67 147 -6 43 -24 171 -41 284 -18 113 -35 232 -40 265 -36
252 -40 269 -67 293 -25 23 -31 23 -170 20 -184 -4 -183 -3 -183 -149 l0 -99
-85 0 -85 0 0 88 c-1 116 -13 143 -71 157 l-44 11 -3 91 c-3 107 1 114 95 153
32 13 80 34 107 47 28 12 55 23 62 23 17 0 64 58 64 79 0 46 -28 64 -261 162
-128 54 -168 60 -199 29 -19 -19 -20 -33 -20 -292 0 -150 -4 -278 -8 -283 -4
-6 -25 -15 -47 -20 -54 -13 -65 -39 -65 -152 l0 -93 -85 0 -85 0 0 84 c0 99
-13 144 -47 157 -26 10 -254 12 -288 3 -30 -8 -46 -38 -56 -108 -5 -34 -16
-106 -24 -161 -8 -55 -22 -145 -30 -200 -9 -55 -20 -129 -25 -165 -29 -211
-44 -289 -61 -327 -35 -73 -92 -67 -160 19 -212 266 -308 554 -296 891 8 255
73 468 202 669 214 331 516 531 935 617 74 15 356 13 440 -3z"/>
</g>
</svg>
